{
    "Records": [
        {
            "eventName": "ObjectCreated:Put",
            "s3": {
                "bucket": {
                    "name": "dev-miniscm-receipts"
                },
                "object": {
                    "key": "emails/kn54r0p8l1n7g670cjcm6d7ea6o04deev4gb13g1"
                }
            }
        }
    ]
}